[
  {
    "author": "test tets",
    "message": "dcvghj",
    "id": "7Ef4SYd_xfUMPnEwDEDGc",
    "image": "tOOw9Oru7ax9_1Qre3IfU.jpg"
  },
  {
    "author": "Admin",
    "message": "fghj",
    "image": "null",
    "id": "odyFb_IuH1NOvsO-6YXDD"
  },
  {
    "author": "",
    "message": "dfghj",
    "image": "null",
    "id": "q_hBslYvi9UBGVaWdIXR0"
  },
  {
    "author": "",
    "message": "Hello",
    "image": "null",
    "id": "bXvl8gA_06VtYxHqd2WaE"
  },
  {
    "author": "Admin",
    "message": "Hello, anonymous",
    "image": "null",
    "id": "O2qGuRWdSEC-xCjiFo3zo"
  },
  {
    "author": "",
    "message": "What`s up",
    "id": "yU_QHOS6MaGcQO6jshiIj",
    "image": "OBE_CKxI9PetFGg5lA3ym.gif"
  }
]